{
  "project_info": {
    "project_number": "313078441927",
    "project_id": "blippi-105e5",
    "storage_bucket": "blippi-105e5.appspot.com"
  },
  "client": [
    {
      "client_info": {
        "mobilesdk_app_id": "1:313078441927:android:aa8a99576efff111f19be2",
        "android_client_info": {
          "package_name": "com.topgameblippi.blippicoloringbook"
        }
      },
      "oauth_client": [
        {
          "client_id": "313078441927-642thfqpk5oee8o3ssmvc4o9hslti10h.apps.googleusercontent.com",
          "client_type": 3
        }
      ],
      "api_key": [
        {
          "current_key": "AIzaSyAXuqDbeea0c5E_AnrnyLxmh8-mWydPw34"
        }
      ],
      "services": {
        "appinvite_service": {
          "other_platform_oauth_client": [
            {
              "client_id": "313078441927-642thfqpk5oee8o3ssmvc4o9hslti10h.apps.googleusercontent.com",
              "client_type": 3
            }
          ]
        }
      }
    }
  ],
  "configuration_version": "1"
}